{
    "setupFilesAfterEnv": [
        "<rootDir>/node_modules/jest-enzyme/lib/index.js"
    ],
    "setupFiles": [
        "<rootDir>/test-shim.js"
    ],
    "transform": {
        "^.+\\.tsx?$": "ts-jest"
    },
    "moduleFileExtensions": [
        "js",
        "ts",
        "tsx"
    ],
    "testMatch": [
        "**/**.spec.{ts,tsx}"
    ],
    "testURL": "http://test/",
    "collectCoverage": true,
    "coverageDirectory": "reports/coverage",
    "collectCoverageFrom": [
        "./src/**/*.ts",
        "./src/**/*.tsx",
        "!./src/FrontendEntry.tsx",
        "!./src/ServerEntry.tsx",
        "!./src/**/*.spec.ts",
        "!./src/**/*.spec.tsx"
    ]
}
